{
	"Version": 3,
	"FileReferences": {
		"Moc": "SD_1.moc3",
		"Textures": [
			"SD_1.2048/texture_00.png"
		]
	},
	"Groups": [
		{
			"Target": "Parameter",
			"Name": "LipSync",
			"Ids": []
		},
		{
			"Target": "Parameter",
			"Name": "EyeBlink",
			"Ids": []
		}
	]
}