%YAML 1.1
%TAG !u! tag:unity3d.com,2011:
--- !u!114 &11400000
MonoBehaviour:
  m_ObjectHideFlags: 0
  m_CorrespondingSourceObject: {fileID: 0}
  m_PrefabInstance: {fileID: 0}
  m_PrefabAsset: {fileID: 0}
  m_GameObject: {fileID: 0}
  m_Enabled: 1
  m_EditorHideFlags: 0
  m_Script: {fileID: 11500000, guid: 403ae2dd693bb1d4b924f6b8d206b053, type: 3}
  m_Name: Assets.fadeMotionList
  m_EditorClassIdentifier: 
  MotionInstanceIds: c4c10000
  CubismFadeMotionObjects:
  - {fileID: 11400000, guid: 1d4614ecdd95974459679ff3284ec7d4, type: 2}
